[
    {
        "uid": "1708391749421",
        "title": "Mimi wo sumaseba",
        "description": "Curious as to who he is, Shizuku meets a boy her age whom she finds infuriating, but discovers to her shock that he is her 'Prince of Books'. As she grows closer to him, she realises that he merely read all those books to bring himself closer to her. The boy Seiji aspires to be a violin maker in Italy",
        "imgUrl": "https://image.tmdb.org/t/p/w600_and_h900_bestv2/5E3Hvbu0bg38ouYf6chGftVGqZ7.jpg"
    },
    {
        "uid": "1708391823852",
        "title": "Porco Rosso",
        "description": "known in Japan as Crimson Pig (Kurenai no Buta) is the sixth animated film by Hayao Miyazaki and released in 1992. You're introduced to an Italian World War I fighter ace, now living as a freelance bounty hunter chasing",
        "imgUrl": "https://image.tmdb.org/t/p/w600_and_h900_bestv2/byKAndF6KQSDpGxp1mTr23jPbYp.jpg"
    },
    {
        "uid": "1708391869076",
        "title": "Spirited Away",
        "description": "is an Oscar winning Japanese animated film about a ten year old girl who wanders away from her parents along a path that leads to a world ruled by strange and unusual monster-like animals",
        "imgUrl": "https://image.tmdb.org/t/p/w600_and_h900_bestv2/39wmItIWsg5sZMyRUHLkWBcuVCM.jpg"
    },
    {
        "uid": "1708391900827",
        "title": "Howl's Moving Castle",
        "description": "When Sophie, a shy young woman, is cursed with an old body by a spiteful witch, her only chance of breaking the spell lies with a self-indulgent yet insecure young wizard and his companions in his legged, walking home",
        "imgUrl": "https://image.tmdb.org/t/p/w600_and_h900_bestv2/TkTPELv4kC3u1lkloush8skOjE.jpg"
    }
]